Covid-19 Report
…
Rows: 6552 Columns: 8
── Column specification ────────────────────────────────────────────────────────
Delimiter: ","
chr (5): Data as of, State, End Week, Sex, Age Group
dbl (3): MMWR Week, Total Deaths, COVID-19 Deaths

ℹ Use `spec()` to retrieve the full column specification for this data.
ℹ Specify the column types or set `show_col_types = FALSE` to quiet this message.

#｜label: take out all ages, keep only all sex
covidData_Ages <- covidData |>
  filter(!str_detect(`Age Group`,"All Ages"),str_detect(Sex, "All Sex"),ignore_case = TRUE)
covidData_Ages

# A tibble: 2,002 × 8
   `Data as of` State    `MMWR Week` `End Week` Sex   `Age Group` `Total Deaths`
   <chr>        <chr>          <dbl> <chr>      <chr> <chr>                <dbl>
 1 06/28/2023   United …           1 01/04/2020 All … Under 1 ye…            403
 2 06/28/2023   United …           1 01/04/2020 All … 1-4 Years               79
 3 06/28/2023   United …           1 01/04/2020 All … 5-14 Years              99
 4 06/28/2023   United …           1 01/04/2020 All … 15-24 Years            605
 5 06/28/2023   United …           1 01/04/2020 All … 25-34 Years           1261
 6 06/28/2023   United …           1 01/04/2020 All … 35-44 Years           1771
 7 06/28/2023   United …           1 01/04/2020 All … 45-54 Years           3284
 8 06/28/2023   United …           1 01/04/2020 All … 55-64 Years           7936
 9 06/28/2023   United …           1 01/04/2020 All … 65-74 Years          11789
10 06/28/2023   United …           1 01/04/2020 All … 75-84 Years          14546
# ℹ 1,992 more rows
# ℹ 1 more variable: `COVID-19 Deaths` <dbl>
…
    `Age Group` == "5-14 Years"     ~ 3,
    `Age Group` == "15-24 Years"    ~ 4,
    `Age Group` == "25-34 Years"    ~ 5,
    `Age Group` == "35-44 Years"    ~ 6,
    `Age Group` == "45-54 Years"    ~ 7,
    `Age Group` == "55-64 Years"    ~ 8,
    `Age Group` == "65-74 Years"    ~ 9,
    `Age Group` == "75-84 Years"    ~ 10,
    `Age Group` == "85 Years and Over"~ 11,
  )) |>
  filter(!str_detect(Sex, "All Sex")) |>
  drop_na(`Age Group`)
newAgeSex

# A tibble: 4,004 × 8
   `Data as of` State    `MMWR Week` `End Week` Sex   `Age Group` `Total Deaths`
   <chr>        <chr>          <dbl> <chr>      <chr>       <dbl>          <dbl>
 1 06/28/2023   United …           1 01/04/2020 Male            1            214
 2 06/28/2023   United …           1 01/04/2020 Male            2             42
 3 06/28/2023   United …           1 01/04/2020 Male            3             51
 4 06/28/2023   United …           1 01/04/2020 Male            4            445
 5 06/28/2023   United …           1 01/04/2020 Male            5            888
 6 06/28/2023   United …           1 01/04/2020 Male            6           1127
 7 06/28/2023   United …           1 01/04/2020 Male            7           2020
 8 06/28/2023   United …           1 01/04/2020 Male            8           4801
 9 06/28/2023   United …           1 01/04/2020 Male            9           6736
10 06/28/2023   United …           1 01/04/2020 Male           10           7451
# ℹ 3,994 more rows
# ℹ 1 more variable: `COVID-19 Deaths` <dbl>
…
